%YAML 1.1
%TAG !u! tag:unity3d.com,2011:
--- !u!1045 &1
EditorBuildSettings:
  m_ObjectHideFlags: 0
  serializedVersion: 2
  m_Scenes:
  - enabled: 1
    path: Assets/0_stianbm/scenes/_preload.unity
    guid: d4985d7b54876154b9e2b43cfbbec3d3
  - enabled: 1
    path: Assets/0_stianbm/scenes/Menu.unity
    guid: 3181c58597e30804d91b62bc618f1ae6
  - enabled: 0
    path: Assets/0_stianbm/scenes/Oppdal.unity
    guid: 65dceb517f2ccab4e90ed89429a89dc2
  - enabled: 1
    path: Assets/0_stianbm/scenes/Oppdal_2.0.unity
    guid: 0c064872cdc4fc243ad78b2713ebc178
  m_configObjects: {}
